#Measurement file	
#project	CMS tracker
#Sensor Type	PSS
#ID	34342_033_PSS_MAINL
#Scratch PAD	|0000|0000|0000|0000|0011|0011|
#Operator	HPK
#Date	28-Sep-20
#Ingot No.	2984038-504
#Bad strips	0
#AC NG	none
#AC open	none
#AC short	none
#DC high	none
#DC low	none
#DC leaky	none
#Polysilicon Bias Resistance Upper [Mohm]	1.81 
#Polysilicon Bias Resistance Lower [Mohm]	1.60 
#Polysilicon Bias Resistance Average [Mohm]	1.70 
#Depletion voltage [V]	290
#temperature [deg]	25
#humidity [%]	50
	
voltage [V]	current [A]
0	4.172E-09
20	6.453E-08
40	6.494E-08
60	6.886E-08
80	7.145E-08
100	7.239E-08
120	7.344E-08
140	7.41E-08
160	7.485E-08
180	7.514E-08
200	7.562E-08
220	7.653E-08
240	7.81E-08
260	7.523E-08
280	7.735E-08
300	7.859E-08
320	7.943E-08
340	8.011E-08
360	8.072E-08
380	8.126E-08
400	8.178E-08
420	8.226E-08
440	8.273E-08
460	8.318E-08
480	8.361E-08
500	8.404E-08
520	8.446E-08
540	8.486E-08
560	8.527E-08
580	8.567E-08
600	8.608E-08
620	8.647E-08
640	8.687E-08
660	8.727E-08
680	8.767E-08
700	8.808E-08
720	8.849E-08
740	8.891E-08
760	8.933E-08
780	8.976E-08
800	9.02E-08
820	9.065E-08
840	9.111E-08
860	9.158E-08
880	9.208E-08
900	9.259E-08
920	9.311E-08
940	9.367E-08
960	9.425E-08
980	9.485E-08
1000	9.549E-08
	
voltage [V]	capacitance [F]
0	5.35523E-08
10	8.20929E-09
20	5.99391E-09
30	4.90753E-09
40	4.24157E-09
50	3.79824E-09
60	3.45731E-09
70	3.18678E-09
80	2.9812E-09
90	2.81029E-09
100	2.66541E-09
110	2.54063E-09
120	2.43206E-09
130	2.33613E-09
140	2.25035E-09
150	2.1737E-09
160	2.10558E-09
170	2.04332E-09
180	1.98493E-09
190	1.92852E-09
200	1.87647E-09
210	1.82839E-09
220	1.78391E-09
230	1.74143E-09
240	1.70062E-09
250	1.66153E-09
260	1.62632E-09
270	1.59721E-09
280	1.57867E-09
290	1.57067E-09
300	1.56719E-09
310	1.56527E-09
320	1.56397E-09
330	1.563E-09
340	1.56227E-09
350	1.56163E-09
360	1.56103E-09
370	1.56054E-09
380	1.56012E-09
390	1.55978E-09
400	1.55942E-09
	
#End of manufacturer data file		
