#Measurement file	
#project	CMS tracker
#Sensor Type	PSS
#ID	34342_028_PSS_MAINL
#Scratch PAD	|0000|0000|0000|0000|0010|1000|
#Operator	HPK
#Date	28-Sep-20
#Ingot No.	2984038-504
#Bad strips	0
#AC NG	none
#AC open	none
#AC short	none
#DC high	none
#DC low	none
#DC leaky	none
#Polysilicon Bias Resistance Upper [Mohm]	1.81 
#Polysilicon Bias Resistance Lower [Mohm]	1.60 
#Polysilicon Bias Resistance Average [Mohm]	1.70 
#Depletion voltage [V]	290
#temperature [deg]	25
#humidity [%]	50
	
voltage [V]	current [A]
0	5.052E-09
20	6.383E-08
40	6.139E-08
60	6.319E-08
80	6.442E-08
100	6.54E-08
120	6.658E-08
140	6.715E-08
160	6.789E-08
180	6.84E-08
200	6.906E-08
220	7.003E-08
240	7.145E-08
260	7.355E-08
280	7.566E-08
300	7.724E-08
320	7.866E-08
340	8.01E-08
360	8.172E-08
380	8.354E-08
400	8.562E-08
420	8.806E-08
440	9.094E-08
460	9.434E-08
480	9.855E-08
500	1.0355E-07
520	1.0946E-07
540	1.1648E-07
560	1.2457E-07
580	1.3393E-07
600	1.4488E-07
620	1.5784E-07
640	1.7284E-07
660	1.904E-07
680	2.115E-07
700	0.000000236
720	0.000000263
740	2.946E-07
760	3.312E-07
780	3.722E-07
800	4.184E-07
820	4.728E-07
840	5.337E-07
860	6.027E-07
880	0.00000068
900	7.703E-07
920	8.685E-07
940	9.823E-07
960	1.1219E-06
980	1.0395E-07
1000	1.0455E-07
	
voltage [V]	capacitance [F]
0	4.67245E-08
10	1.02275E-08
20	6.14033E-09
30	4.98198E-09
40	4.29302E-09
50	3.83461E-09
60	3.4699E-09
70	3.20789E-09
80	2.99822E-09
90	2.82457E-09
100	2.67777E-09
110	2.55171E-09
120	2.44205E-09
130	2.34517E-09
140	2.25831E-09
150	2.18079E-09
160	2.1118E-09
170	2.04796E-09
180	1.98861E-09
190	1.93363E-09
200	1.88322E-09
210	1.83639E-09
220	1.79199E-09
230	1.74948E-09
240	1.70841E-09
250	1.66937E-09
260	1.63384E-09
270	1.60344E-09
280	1.58188E-09
290	1.57143E-09
300	1.56692E-09
310	1.56466E-09
320	1.56317E-09
330	1.56209E-09
340	1.56133E-09
350	1.56064E-09
360	1.56002E-09
370	1.55956E-09
380	1.55906E-09
390	1.55867E-09
400	1.55828E-09
	
#End of manufacturer data file		
