Wafer Name:,VUCUPNH

position,ID,result
1,8201,pass
2,8202,pass
3,8203, FAIL
4,8204,pass
5,8205,pass
6,8206, FAIL
7,8207, FAIL
8,8208,pass
9,8209,pass
10,8210,pass
11,8211, FAIL
12,8212, FAIL
13,8213, FAIL
14,8214,pass
15,8215,pass
16,8216,pass
17,8217,pass
18,8218, FAIL
19,8219,pass
20,8220,pass
21,8221,pass
22,8222,pass
23,8223, FAIL
24,8224,pass
25,8225,pass
26,8226,pass
27,8227,pass
28,8228,pass
29,8229,pass
30,8230,pass
31,8231,pass
32,8232,pass
33,8233,pass
34,8234, FAIL
35,8235,pass
36,8236,pass
37,8237,pass
38,8238,pass
39,8239,pass
40,8240,pass
41,8241,pass
42,8242,pass
43,8243,pass
44,8244,pass
45,8245,pass
46,8246,pass
47,8247,pass
48,8248,pass
49,8249, FAIL
50,8250,pass
51,8251, FAIL
52,8252,pass
53,8253,pass
54,8254,pass
55,8255, FAIL
56,8256,pass
57,8257,pass
58,8258,pass
59,8259,pass
60,8260, FAIL
61,8261,pass
62,8262,pass
63,8263, FAIL
64,8264,pass
65,8265,pass
66,8266,pass
67,8267,pass
68,8268,pass
69,8269, FAIL
70,8270, FAIL
71,8271,pass
72,8272,pass
73,8273,pass
74,8274,pass
75,8275,pass
76,8276,pass
77,8277,pass
78,8278, FAIL
79,8279, FAIL
80,8280,pass
81,8281,pass
82,8282,pass
83,8283,pass
84,8284, FAIL
85,8285, FAIL
86,8286,pass
87,8287,pass
88,8288,pass
89,8289,pass
90,8290,pass
91,8291,pass
92,8292,pass
93,8293, FAIL
94,8294,pass
95,8295,pass
96,8296,pass
97,8297,pass
98,8298,pass
99,8299, FAIL
100,8300, FAIL
101,8301,pass
102,8302,pass
103,8303,pass
104,8304,pass
105,8305,pass
106,8306,pass
107,8307,pass
108,8308, FAIL
109,8309,pass
110,8310,pass
111,8311,pass
112,8312,pass
113,8313, FAIL
114,8314, FAIL
115,8315, FAIL
116,8316,pass
117,8317,pass
118,8318,pass
119,8319,pass
120,8320,pass
121,8321,pass
122,8322,pass
123,8323,pass
124,8324,pass
125,8325,pass
126,8326,pass
127,8327,pass
128,8328,pass
129,8329,pass
130,8330,pass
131,8331,pass
132,8332,pass
133,8333,pass
134,8334,pass
135,8335,pass
136,8336,pass
137,8337,pass
138,8338,pass
139,8339,pass
140,8340,pass
141,8341,pass
142,8342,pass
143,8343,pass
144,8344,pass
145,8345,pass
146,8346, FAIL
147,8347,pass
148,8348, FAIL
149,8349,pass
150,8350,pass
151,8351,pass
152,8352,pass
153,8353, FAIL
154,8354,pass
155,8355,pass
156,8356,pass
157,8357,pass
158,8358,pass
159,8359, FAIL
160,8360, FAIL
161,8361,pass
162,8362,pass
163,8363, FAIL
164,8364,pass
165,8365,pass
166,8366,pass
167,8367,pass
168,8368,pass
169,8369,pass
170,8370, FAIL
171,8371, FAIL
172,8372,pass
173,8373,pass
174,8374,pass
175,8375,pass
176,8376,pass
177,8377,pass
178,8378,pass
179,8379,pass
180,8380,pass
181,8381,pass
182,8382,pass
183,8383,pass
184,8384,pass
185,8385,pass
186,8386,pass
