Wafer Name:,VXCUN3H

position,ID,result
1,8801,pass
2,8802,pass
3,8803,pass
4,8804,pass
5,8805,pass
6,8806,pass
7,8807, FAIL
8,8808,pass
9,8809,pass
10,8810,pass
11,8811,pass
12,8812, FAIL
13,8813, FAIL
14,8814, FAIL
15,8815,pass
16,8816,pass
17,8817, FAIL
18,8818,pass
19,8819,pass
20,8820,pass
21,8821,pass
22,8822,pass
23,8823, FAIL
24,8824,pass
25,8825,pass
26,8826,pass
27,8827,pass
28,8828, FAIL
29,8829, FAIL
30,8830,pass
31,8831,pass
32,8832,pass
33,8833,pass
34,8834, FAIL
35,8835,pass
36,8836,pass
37,8837,pass
38,8838,pass
39,8839,pass
40,8840,pass
41,8841,pass
42,8842,pass
43,8843,pass
44,8844,pass
45,8845,pass
46,8846, FAIL
47,8847,pass
48,8848,pass
49,8849,pass
50,8850,pass
51,8851, FAIL
52,8852,pass
53,8853,pass
54,8854, FAIL
55,8855,pass
56,8856,pass
57,8857, FAIL
58,8858,pass
59,8859,pass
60,8860,pass
61,8861,pass
62,8862,pass
63,8863, FAIL
64,8864, FAIL
65,8865,pass
66,8866,pass
67,8867,pass
68,8868,pass
69,8869,pass
70,8870,pass
71,8871,pass
72,8872,pass
73,8873,pass
74,8874,pass
75,8875,pass
76,8876,pass
77,8877, FAIL
78,8878, FAIL
79,8879,pass
80,8880, FAIL
81,8881,pass
82,8882,pass
83,8883, FAIL
84,8884,pass
85,8885,pass
86,8886,pass
87,8887,pass
88,8888,pass
89,8889,pass
90,8890,pass
91,8891,pass
92,8892,pass
93,8893, FAIL
94,8894,pass
95,8895, FAIL
96,8896,pass
97,8897,pass
98,8898,pass
99,8899,pass
100,8900,pass
101,8901,pass
102,8902, FAIL
103,8903,pass
104,8904,pass
105,8905,pass
106,8906,pass
107,8907,pass
108,8908, FAIL
109,8909,pass
110,8910, FAIL
111,8911,pass
112,8912,pass
113,8913,pass
114,8914, FAIL
115,8915,pass
116,8916,pass
117,8917, FAIL
118,8918,pass
119,8919,pass
120,8920,pass
121,8921, FAIL
122,8922, FAIL
123,8923,pass
124,8924,pass
125,8925, FAIL
126,8926,pass
127,8927,pass
128,8928,pass
129,8929,pass
130,8930,pass
131,8931,pass
132,8932,pass
133,8933,pass
134,8934,pass
135,8935,pass
136,8936,pass
137,8937,pass
138,8938, FAIL
139,8939,pass
140,8940,pass
141,8941,pass
142,8942,pass
143,8943,pass
144,8944,pass
145,8945,pass
146,8946,pass
147,8947,pass
148,8948,pass
149,8949,pass
150,8950,pass
151,8951,pass
152,8952,pass
153,8953,pass
154,8954,pass
155,8955,pass
156,8956,pass
157,8957,pass
158,8958,pass
159,8959,pass
160,8960,pass
161,8961,pass
162,8962,pass
163,8963,pass
164,8964, FAIL
165,8965,pass
166,8966,pass
167,8967,pass
168,8968,pass
169,8969,pass
170,8970,pass
171,8971,pass
172,8972,pass
173,8973,pass
174,8974,pass
175,8975,pass
176,8976, FAIL
177,8977,pass
178,8978,pass
179,8979,pass
180,8980,pass
181,8981,pass
182,8982,pass
183,8983,pass
184,8984,pass
185,8985,pass
186,8986,pass
