Wafer Name:,VYCUPJH

position,ID,result
1,9201,pass
2,9202,pass
3,9203,pass
4,9204,pass
5,9205,pass
6,9206,pass
7,9207,pass
8,9208,pass
9,9209,pass
10,9210,pass
11,9211,pass
12,9212, FAIL
13,9213, FAIL
14,9214,pass
15,9215,pass
16,9216,pass
17,9217,pass
18,9218,pass
19,9219,pass
20,9220,pass
21,9221,pass
22,9222,pass
23,9223, FAIL
24,9224, FAIL
25,9225,pass
26,9226,pass
27,9227,pass
28,9228,pass
29,9229,pass
30,9230,pass
31,9231,pass
32,9232,pass
33,9233,pass
34,9234,pass
35,9235, FAIL
36,9236,pass
37,9237,pass
38,9238,pass
39,9239,pass
40,9240,pass
41,9241,pass
42,9242,pass
43,9243,pass
44,9244,pass
45,9245,pass
46,9246,pass
47,9247,pass
48,9248,pass
49,9249,pass
50,9250,pass
51,9251, FAIL
52,9252,pass
53,9253,pass
54,9254,pass
55,9255, FAIL
56,9256, FAIL
57,9257,pass
58,9258,pass
59,9259,pass
60,9260,pass
61,9261,pass
62,9262, FAIL
63,9263, FAIL
64,9264,pass
65,9265,pass
66,9266,pass
67,9267,pass
68,9268,pass
69,9269,pass
70,9270,pass
71,9271,pass
72,9272,pass
73,9273,pass
74,9274, FAIL
75,9275,pass
76,9276,pass
77,9277,pass
78,9278, FAIL
79,9279,pass
80,9280, FAIL
81,9281,pass
82,9282,pass
83,9283,pass
84,9284,pass
85,9285,pass
86,9286,pass
87,9287,pass
88,9288,pass
89,9289,pass
90,9290,pass
91,9291, FAIL
92,9292,pass
93,9293, FAIL
94,9294,pass
95,9295,pass
96,9296,pass
97,9297,pass
98,9298,pass
99,9299,pass
100,9300,pass
101,9301,pass
102,9302,pass
103,9303,pass
104,9304,pass
105,9305, FAIL
106,9306, FAIL
107,9307,pass
108,9308, FAIL
109,9309, FAIL
110,9310,pass
111,9311,pass
112,9312,pass
113,9313, FAIL
114,9314,pass
115,9315,pass
116,9316,pass
117,9317,pass
118,9318,pass
119,9319,pass
120,9320,pass
121,9321,pass
122,9322,pass
123,9323,pass
124,9324, FAIL
125,9325,pass
126,9326, FAIL
127,9327,pass
128,9328,pass
129,9329,pass
130,9330,pass
131,9331,pass
132,9332,pass
133,9333,pass
134,9334,pass
135,9335,pass
136,9336,pass
137,9337, FAIL
138,9338,pass
139,9339,pass
140,9340,pass
141,9341,pass
142,9342,pass
143,9343, FAIL
144,9344,pass
145,9345,pass
146,9346, FAIL
147,9347,pass
148,9348,pass
149,9349,pass
150,9350,pass
151,9351,pass
152,9352,pass
153,9353,pass
154,9354,pass
155,9355,pass
156,9356, FAIL
157,9357,pass
158,9358,pass
159,9359,pass
160,9360,pass
161,9361,pass
162,9362,pass
163,9363,pass
164,9364,pass
165,9365,pass
166,9366,pass
167,9367,pass
168,9368,pass
169,9369,pass
170,9370,pass
171,9371, FAIL
172,9372,pass
173,9373,pass
174,9374,pass
175,9375,pass
176,9376,pass
177,9377,pass
178,9378,pass
179,9379,pass
180,9380,pass
181,9381, FAIL
182,9382,pass
183,9383,pass
184,9384,pass
185,9385,pass
186,9386,pass
